{
  "Gun Shoot":
  {
    "category": "neutral",
    "sounds":
    [
      "Gun Shoot"
    ]
  },
  "Gun Splat":
  {
    "category": "neutral",
    "sounds":
    [
      "Gun Splat"
    ]
  },
  "Grenade Pin":
  {
    "category": "neutral",
    "sounds":
    [
      "Grenade Pin"
    ]
  },
  "Grenade Land":
  {
    "category": "neutral",
    "sounds":
    [
      "Grenade Land"
    ]
  },
  "Claymore Place":
  {
    "category": "block",
    "sounds":
    [
      "Claymore Place"
    ]
  },
  "C4 Place":
  {
    "category": "block",
    "sounds":
    [
      "C4 Place"
    ]
  }
}